{
  "cn.dev": [
    {
      "account": "1195435a-b835-e911-81d0-c52d4118af7a",
      "country": "CN",
      "email": "LokiUser0001@dyson.com",
      "locale": "zh-CN",
      "password": "qwerty123",
      "passwordHash": "d0UPa5P12PwTWHEtfNKe8eVqpPJp17e0dKRZGTpz01W32pmyJKHIzlCRH5n6UXJqaRZKlZur/OPXVGGIbAy+wg=="
    }
  ],
  "cn.stage": [
    {
      "account": "41faa5a5-6536-e911-81d0-c7dfded7a179",
      "country": "CN",
      "email": "LokiUser0001@dyson.com",
      "locale": "zh-CN",
      "password": "qwerty123",
      "passwordHash": "96X4xX2GLJDost/jGnvKj9UswsCtr4DqSjtA8QBouxxC5MRgOnjEvNawIB9w5Ds6Wie02WJr/vUJ0Yt7semCnQ=="
    }
  ],
  "cn.prod": [],
  "cn.dev500": [],
  "cn.dev599": [],
  "row.dev000": [],
  "row.dev001": [],
  "row.dev002": [],
  "row.dev003": [],
  "row.dev004": [
    {
      "account": "5aa5fbf9-cb52-41f7-a178-974c1dde67ba",
      "country": "GB",
      "email": "LokiUser0001@dyson.com",
      "locale": "en-GB",
      "password": "qwerty123",
      "passwordHash": "hQ8oqQhRPEX08BIBp56av0lEpMikdYB9kEU+2ye2GUcC99/6Zbwe7PrQR9CvMT2JBuJObUKeuNgrsxMRuMCR1A=="
    }
  ],
  "row.ci": [
    {
      "account": "9dd2b26b-c751-45b7-9a59-394f529e255a",
      "country": "GB",
      "email": "LokiUser0001@dyson.com",
      "locale": "en-GB",
      "password": "qwerty123",
      "passwordHash": "Wn/fx+EuBbpmsUgjz12MAvUoEsS09TDbFp+YGRubtwBCG/yuoec3EoRS0Dd6OIsOF1F+8D+DTfHqD06PNKAtQA=="
    }
  ],
  "row.ppe": [
    {
      "account": "b35a7a9a-f510-4a09-a7b1-1c92e21b6bee",
      "country": "GB",
      "email": "LokiUser0001@dyson.com",
      "locale": "en-GB",
      "password": "qwerty123",
      "passwordHash": "d4x21Fer+Hs+3UWFeWdYf2e8BhvwhAZuDC3MaQvGRz6+vbtMzg5XRKqFcxWcy9BjA1zPjlffeM5z8L5c5RWAWQ=="
    }
  ],
  "row.lt": [],
  "row.si": [
    {
      "account": "19e731f9-2074-4a94-b936-015f49361f4e",
      "country": "GB",
      "email": "LokiUser0001@dyson.com",
      "locale": "en-GB",
      "password": "qwerty123",
      "passwordHash": "NHD73+shg7O2ODRzDbymivAxAIIb9hViFU6BkBg9qInJaQuGtUM4nsJJ3uo+Fbr6bPrMgCC6Goe1FPyT2EWpBA=="
    }
  ],
  "row.uat": [
    {
      "account": "fbc3c759-0086-4f6f-a122-96a9d916b44e",
      "country": "GB",
      "email": "LokiUser0001@dyson.com",
      "locale": "en-GB",
      "password": "qwerty123",
      "passwordHash": "Qc/1aF9yxMw3rS1FVJ4gG7kyq1lz6HWPmEJDBqofOS1wT8ahJuuGcttV6on39GrYU64JPO9V8xfpl283KT/k5A=="
    }
  ],
  "row.stage": [
    {
      "account": "ae9f85d1-0d9b-4731-9e31-bb47a41cd479",
      "country": "GB",
      "email": "LokiUser0001@dyson.com",
      "locale": "en-GB",
      "password": "qwerty123",
      "passwordHash": "e9c8xvW2YTHQcNzL9899X1SvZtd7uGgJOIFqHwA/g/18KCWy7E8nG544zbOJVEcw/CIBwC3fJs8tgIVkW13zyw=="
    }
  ],
  "row.prod": []
}
